{
    "extends": [
        "tslint:latest",
        "tslint-config-prettier"
    ],
    "rulesDirectory": [
        "tslint-plugin-prettier"
    ],
    "rules": {
        "prettier": [
            true,
            {
                "singleQuote": true,
                "tabWidth": 4,
                "trailingComma": "all"
            }
        ],
        "interface-name": [true, "never-prefix"],
        "only-arrow-functions": false,
        "no-implicit-dependencies": [true, "dev"],
        "no-switch-case-fall-through": true,
        "no-unused-expression": true,
        "no-submodule-imports": false,
        "no-unused-variable": [
            true,
            {
                "check-parameters": true
            }
        ]
    }
}
